…
``` r
data_ratings %>% AverageWAgg()
#> 
#> ── AverageWAgg: ArMean ─────────────────────────────────────────────────────────
#> 
#> ── Pre-Processing Options ──
#> 
#> ℹ Round Filter: TRUE
#> ℹ Three Point Filter: TRUE
#> ℹ Percent Toggle: FALSE
#> # A tibble: 25 × 4
#>    method paper_id    cs n_experts
#>    <chr>  <chr>    <dbl>     <int>
#>  1 ArMean 100       70.6        25
#>  2 ArMean 102       30.8        25
#>  3 ArMean 103       62.5        25
#>  4 ArMean 104       47.1        25
#>  5 ArMean 106       36.5        25
#>  6 ArMean 108       71.8        25
#>  7 ArMean 109       72.5        25
#>  8 ArMean 116       62.6        25
#>  9 ArMean 118       54.8        25
#> 10 ArMean 133       59.9        25
#> # … with 15 more rows
```
…
